{
    "Players":
    [
        {
            "Name": "Adam",
            "Score": 29
        },
        {
            "Name": "Khaled",
            "Score": 21
        },
        {
            "Name": "mery",
            "Score": 43
        },
        {
            "Name": "Fatii",
            "Score": 13
        },
        {
            "Name": "Ahmed",
            "Score": 50
        }
    ],
    "Teams":
    [
        {
            "Name": "Fighters",
            "Score": 90,
            "Icon": 2
        },
        {
            "Name": "Death Squad",
            "Score": 76,
            "Icon": 5
        },
        {
            "Name": "Heroes of the desert",
            "Score": 230,
            "Icon": 3
        },
        {
            "Name": "North kingdom",
            "Score": 234,
            "Icon": 1
        },
        {
            "Name": "Rightrous nights",
            "Score": 561,
            "Icon": 4
        }
    ]
}